C:\Users\Vladimir\IdeaProjects\neo-mvn\src\main\java\space\NasaDataProvider.java
C:\Users\Vladimir\IdeaProjects\neo-mvn\src\main\java\NewMain\CLIApplication.java
C:\Users\Vladimir\IdeaProjects\neo-mvn\src\main\java\NewMain\GUIApplication.java
C:\Users\Vladimir\IdeaProjects\neo-mvn\src\main\java\space\Asteroid.java
C:\Users\Vladimir\IdeaProjects\neo-mvn\src\main\java\NewMain\MainController.java
C:\Users\Vladimir\IdeaProjects\neo-mvn\src\main\java\config\XMLConfigurationProvider.java
